…
## Loading and preprocessing the data

```r
setwd("~/Documents/Classes/DataSciCourse/RepData_PeerAssessment1")
data <- read.csv(unz('activity.zip', "activity.csv"), colClasses = c("numeric", 
                                                "character", "character"))
data <- as_tibble(data)
data
```

```
## # A tibble: 17,568 x 3
##    steps date       interval
##    <dbl> <chr>      <chr>   
##  1    NA 2012-10-01 0       
##  2    NA 2012-10-01 5       
##  3    NA 2012-10-01 10      
##  4    NA 2012-10-01 15      
##  5    NA 2012-10-01 20      
##  6    NA 2012-10-01 25      
##  7    NA 2012-10-01 30      
##  8    NA 2012-10-01 35      
##  9    NA 2012-10-01 40      
## 10    NA 2012-10-01 45      
## # ... with 17,558 more rows
```
…
data <- data %>% mutate(date_time = as.POSIXct(paste(date, interval), 
                       format = "%Y-%m-%d %H:%M"), date = ymd(date))

data
```

```
## # A tibble: 17,568 x 5
##    steps date       interval Minutes date_time          
##    <dbl> <date>     <chr>      <dbl> <dttm>             
##  1    NA 2012-10-01 00:00          0 2012-10-01 00:00:00
##  2    NA 2012-10-01 00:05          5 2012-10-01 00:05:00
##  3    NA 2012-10-01 00:10         10 2012-10-01 00:10:00
##  4    NA 2012-10-01 00:15         15 2012-10-01 00:15:00
##  5    NA 2012-10-01 00:20         20 2012-10-01 00:20:00
##  6    NA 2012-10-01 00:25         25 2012-10-01 00:25:00
##  7    NA 2012-10-01 00:30         30 2012-10-01 00:30:00
##  8    NA 2012-10-01 00:35         35 2012-10-01 00:35:00
##  9    NA 2012-10-01 00:40         40 2012-10-01 00:40:00
## 10    NA 2012-10-01 00:45         45 2012-10-01 00:45:00
## # ... with 17,558 more rows
```
…
